{
  "swagger" : "2.0",
  "info" : {
    "description" : "Airport dispatcher API",
    "version" : "0.0.42",
    "title" : "Imaginary airport"
  },
  "basePath" : "/api/v1",
  "tags" : [ {
    "name" : "planeType",
    "description" : "Типы самолетов"
  }, {
    "name" : "plane",
    "description" : "Самолеты"
  }, {
    "name" : "crew",
    "description" : "Экипажи, пилоты, стюардессы"
  }, {
    "name" : "flights",
    "description" : "Рейсы"
  }, {
    "name" : "tickets",
    "description" : "Билеты"
  }, {
    "name" : "departures",
    "description" : "Вылеты"
  } ],
  "consumes" : [ "application/json" ],
  "produces" : [ "application/json" ],
  "paths" : {
    "/planeTypes" : {
      "get" : {
        "tags" : [ "planeType" ],
        "summary" : "Получить список всех типов самолетов",
        "parameters" : [ ],
        "responses" : {
          "200" : {
            "description" : "OK",
            "schema" : {
              "type" : "array",
              "items" : {
                "$ref" : "#/definitions/PlaneType"
              }
            }
          }
        }
      },
      "post" : {
        "tags" : [ "planeType" ],
        "summary" : "Создать новый тип самолета",
        "parameters" : [ {
          "in" : "body",
          "name" : "body",
          "required" : true,
          "schema" : {
            "$ref" : "#/definitions/PlaneType"
          }
        } ],
        "responses" : {
          "201" : {
            "description" : "Ресурс создан",
            "headers" : {
              "Location" : {
                "type" : "string",
                "description" : "Url созданного ресурса"
              }
            }
          },
          "400" : {
            "description" : "Ошибка валидации входных данных"
          }
        }
      }
    },
    "/planeTypes/{id}" : {
      "get" : {
        "tags" : [ "planeType" ],
        "summary" : "Получить тип самолета",
        "parameters" : [ {
          "name" : "id",
          "in" : "path",
          "required" : true,
          "type" : "integer",
          "minimum" : 1,
          "format" : "int64"
        } ],
        "responses" : {
          "200" : {
            "description" : "OK",
            "schema" : {
              "$ref" : "#/definitions/PlaneType"
            }
          },
          "400" : {
            "description" : "Ошибка валидации входных данных"
          },
          "404" : {
            "description" : "Ресурс не найден"
          }
        }
      },
      "put" : {
        "tags" : [ "planeType" ],
        "summary" : "Изменить тип самолета",
        "parameters" : [ {
          "name" : "id",
          "in" : "path",
          "required" : true,
          "type" : "integer",
          "minimum" : 1,
          "format" : "int64"
        }, {
          "in" : "body",
          "name" : "body",
          "required" : true,
          "schema" : {
            "$ref" : "#/definitions/PlaneType"
          }
        } ],
        "responses" : {
          "200" : {
            "description" : "OK",
            "schema" : {
              "$ref" : "#/definitions/PlaneType"
            }
          },
          "400" : {
            "description" : "Ошибка валидации входных данных"
          },
          "404" : {
            "description" : "Ресурс не найден"
          }
        }
      },
      "delete" : {
        "tags" : [ "planeType" ],
        "summary" : "Удалить тип самолета",
        "parameters" : [ {
          "name" : "id",
          "in" : "path",
          "required" : true,
          "type" : "integer",
          "minimum" : 1,
          "format" : "int64"
        } ],
        "responses" : {
          "204" : {
            "description" : "Ресурс удален"
          },
          "400" : {
            "description" : "Ошибка валидации входных данных"
          },
          "404" : {
            "description" : "Ресурс не найден"
          },
          "409" : {
            "description" : "Этот ресурс используется в других объектах"
          }
        }
      }
    },
    "/planes" : {
      "get" : {
        "tags" : [ "plane" ],
        "summary" : "Получить список самолетов",
        "parameters" : [ ],
        "responses" : {
          "200" : {
            "description" : "OK",
            "schema" : {
              "type" : "array",
              "items" : {
                "$ref" : "#/definitions/Plane"
              }
            }
          }
        }
      },
      "post" : {
        "tags" : [ "plane" ],
        "summary" : "Поставить самолет на учет",
        "parameters" : [ {
          "in" : "body",
          "name" : "body",
          "required" : true,
          "schema" : {
            "$ref" : "#/definitions/Plane"
          }
        } ],
        "responses" : {
          "201" : {
            "description" : "Ресурс создан",
            "headers" : {
              "Location" : {
                "type" : "string",
                "description" : "Url созданного ресурса"
              }
            }
          },
          "400" : {
            "description" : "Ошибка валидации входных данных"
          }
        }
      }
    },
    "/planes/{id}" : {
      "get" : {
        "tags" : [ "plane" ],
        "summary" : "Получить информацию о самолете",
        "parameters" : [ {
          "name" : "id",
          "in" : "path",
          "required" : true,
          "type" : "integer",
          "minimum" : 1,
          "format" : "int64"
        } ],
        "responses" : {
          "200" : {
            "description" : "OK",
            "schema" : {
              "$ref" : "#/definitions/Plane"
            }
          },
          "400" : {
            "description" : "Ошибка валидации входных данных"
          },
          "404" : {
            "description" : "Ресурс не найден"
          }
        }
      },
      "put" : {
        "tags" : [ "plane" ],
        "summary" : "Изменить информацию о самолете",
        "parameters" : [ {
          "name" : "id",
          "in" : "path",
          "required" : true,
          "type" : "integer",
          "minimum" : 1,
          "format" : "int64"
        }, {
          "in" : "body",
          "name" : "body",
          "required" : true,
          "schema" : {
            "$ref" : "#/definitions/Plane"
          }
        } ],
        "responses" : {
          "200" : {
            "description" : "OK",
            "schema" : {
              "$ref" : "#/definitions/Plane"
            }
          },
          "400" : {
            "description" : "Ошибка валидации входных данных"
          },
          "404" : {
            "description" : "Ресурс не найден"
          }
        }
      },
      "delete" : {
        "tags" : [ "plane" ],
        "summary" : "Удалить самолет",
        "parameters" : [ {
          "name" : "id",
          "in" : "path",
          "required" : true,
          "type" : "integer",
          "minimum" : 1,
          "format" : "int64"
        } ],
        "responses" : {
          "204" : {
            "description" : "Ресурс удален"
          },
          "400" : {
            "description" : "Ошибка валидации входных данных"
          },
          "404" : {
            "description" : "Ресурс не найден"
          },
          "409" : {
            "description" : "Этот ресурс используется в других объектах"
          }
        }
      }
    },
    "/pilots" : {
      "get" : {
        "tags" : [ "crew" ],
        "summary" : "Получить список пилотов",
        "parameters" : [ ],
        "responses" : {
          "200" : {
            "description" : "OK",
            "schema" : {
              "type" : "array",
              "items" : {
                "$ref" : "#/definitions/Pilot"
              }
            }
          }
        }
      },
      "post" : {
        "tags" : [ "crew" ],
        "summary" : "Принять пилота на работу",
        "parameters" : [ {
          "in" : "body",
          "name" : "body",
          "required" : true,
          "schema" : {
            "$ref" : "#/definitions/Pilot"
          }
        } ],
        "responses" : {
          "201" : {
            "description" : "Ресурс создан",
            "headers" : {
              "Location" : {
                "type" : "string",
                "description" : "Url созданного ресурса"
              }
            }
          },
          "400" : {
            "description" : "Ошибка валидации входных данных"
          }
        }
      }
    },
    "/pilots/{id}" : {
      "get" : {
        "tags" : [ "crew" ],
        "summary" : "Получить информацию о пилоте",
        "parameters" : [ {
          "name" : "id",
          "in" : "path",
          "required" : true,
          "type" : "integer",
          "minimum" : 1,
          "format" : "int64"
        } ],
        "responses" : {
          "200" : {
            "description" : "OK",
            "schema" : {
              "$ref" : "#/definitions/Pilot"
            }
          },
          "400" : {
            "description" : "Ошибка валидации входных данных"
          },
          "404" : {
            "description" : "Ресурс не найден"
          }
        }
      },
      "put" : {
        "tags" : [ "crew" ],
        "summary" : "Изменить информацию о пилоте",
        "parameters" : [ {
          "name" : "id",
          "in" : "path",
          "required" : true,
          "type" : "integer",
          "minimum" : 1,
          "format" : "int64"
        }, {
          "in" : "body",
          "name" : "body",
          "required" : true,
          "schema" : {
            "$ref" : "#/definitions/Pilot"
          }
        } ],
        "responses" : {
          "200" : {
            "description" : "OK",
            "schema" : {
              "$ref" : "#/definitions/Pilot"
            }
          },
          "400" : {
            "description" : "Ошибка валидации входных данных"
          },
          "404" : {
            "description" : "Ресурс не найден"
          }
        }
      },
      "delete" : {
        "tags" : [ "crew" ],
        "summary" : "Уволить пилота",
        "parameters" : [ {
          "name" : "id",
          "in" : "path",
          "required" : true,
          "type" : "integer",
          "minimum" : 1,
          "format" : "int64"
        } ],
        "responses" : {
          "204" : {
            "description" : "Ресурс удален"
          },
          "400" : {
            "description" : "Ошибка валидации входных данных"
          },
          "404" : {
            "description" : "Ресурс не найден"
          },
          "409" : {
            "description" : "Этот ресурс используется в других объектах"
          }
        }
      }
    },
    "/stewardesses" : {
      "get" : {
        "tags" : [ "crew" ],
        "summary" : "Получить список стюардесс",
        "parameters" : [ ],
        "responses" : {
          "200" : {
            "description" : "OK",
            "schema" : {
              "type" : "array",
              "items" : {
                "$ref" : "#/definitions/Stewardess"
              }
            }
          }
        }
      },
      "post" : {
        "tags" : [ "crew" ],
        "summary" : "Принять стюардессу на работу",
        "parameters" : [ {
          "in" : "body",
          "name" : "body",
          "required" : true,
          "schema" : {
            "$ref" : "#/definitions/Stewardess"
          }
        } ],
        "responses" : {
          "201" : {
            "description" : "Ресурс создан",
            "headers" : {
              "Location" : {
                "type" : "string",
                "description" : "Url созданного ресурса"
              }
            }
          },
          "400" : {
            "description" : "Ошибка валидации входных данных"
          }
        }
      }
    },
    "/stewardesses/{id}" : {
      "get" : {
        "tags" : [ "crew" ],
        "summary" : "Получить информацию о стюардессе",
        "parameters" : [ {
          "name" : "id",
          "in" : "path",
          "required" : true,
          "type" : "integer",
          "minimum" : 1,
          "format" : "int64"
        } ],
        "responses" : {
          "200" : {
            "description" : "OK",
            "schema" : {
              "$ref" : "#/definitions/Stewardess"
            }
          },
          "400" : {
            "description" : "Ошибка валидации входных данных"
          },
          "404" : {
            "description" : "Ресурс не найден"
          }
        }
      },
      "put" : {
        "tags" : [ "crew" ],
        "summary" : "Изменить информацию о стюардессе",
        "parameters" : [ {
          "name" : "id",
          "in" : "path",
          "required" : true,
          "type" : "integer",
          "minimum" : 1,
          "format" : "int64"
        }, {
          "in" : "body",
          "name" : "body",
          "required" : true,
          "schema" : {
            "$ref" : "#/definitions/Stewardess"
          }
        } ],
        "responses" : {
          "200" : {
            "description" : "OK",
            "schema" : {
              "$ref" : "#/definitions/Stewardess"
            }
          },
          "400" : {
            "description" : "Ошибка валидации входных данных"
          },
          "404" : {
            "description" : "Ресурс не найден"
          }
        }
      },
      "delete" : {
        "tags" : [ "crew" ],
        "summary" : "Уволить стюардессу",
        "parameters" : [ {
          "name" : "id",
          "in" : "path",
          "required" : true,
          "type" : "integer",
          "minimum" : 1,
          "format" : "int64"
        } ],
        "responses" : {
          "204" : {
            "description" : "Ресурс удален"
          },
          "400" : {
            "description" : "Ошибка валидации входных данных"
          },
          "404" : {
            "description" : "Ресурс не найден"
          },
          "409" : {
            "description" : "Этот ресурс используется в других объектах"
          }
        }
      }
    },
    "/crews" : {
      "get" : {
        "tags" : [ "crew" ],
        "summary" : "Получить список экипажей",
        "parameters" : [ ],
        "responses" : {
          "200" : {
            "description" : "OK",
            "schema" : {
              "type" : "array",
              "items" : {
                "$ref" : "#/definitions/Crew"
              }
            }
          }
        }
      },
      "post" : {
        "tags" : [ "crew" ],
        "summary" : "Создать новый экипаж",
        "parameters" : [ {
          "in" : "body",
          "name" : "body",
          "required" : true,
          "schema" : {
            "$ref" : "#/definitions/Crew"
          }
        } ],
        "responses" : {
          "201" : {
            "description" : "Ресурс создан",
            "headers" : {
              "Location" : {
                "type" : "string",
                "description" : "Url созданного ресурса"
              }
            }
          },
          "400" : {
            "description" : "Ошибка валидации входных данных"
          }
        }
      }
    },
    "/crews/{id}" : {
      "get" : {
        "tags" : [ "crew" ],
        "summary" : "Получить состав экипажа",
        "parameters" : [ {
          "name" : "id",
          "in" : "path",
          "required" : true,
          "type" : "integer",
          "minimum" : 1,
          "format" : "int64"
        } ],
        "responses" : {
          "200" : {
            "description" : "OK",
            "schema" : {
              "$ref" : "#/definitions/Crew"
            }
          },
          "400" : {
            "description" : "Ошибка валидации входных данных"
          },
          "404" : {
            "description" : "Ресурс не найден"
          }
        }
      }
    },
    "/crews/{crewId}/pilot" : {
      "get" : {
        "tags" : [ "crew" ],
        "summary" : "Получить информацию о пилоте экипажа",
        "parameters" : [ {
          "name" : "crewId",
          "in" : "path",
          "required" : true,
          "type" : "integer",
          "minimum" : 1,
          "format" : "int64"
        } ],
        "responses" : {
          "200" : {
            "description" : "OK",
            "schema" : {
              "$ref" : "#/definitions/Pilot"
            }
          },
          "400" : {
            "description" : "Ошибка валидации входных данных"
          },
          "404" : {
            "description" : "Ресурс не найден"
          }
        }
      }
    },
    "/crews/{crewId}/pilot/{id}" : {
      "put" : {
        "tags" : [ "crew" ],
        "summary" : "Назначить пилота в экипаж",
        "parameters" : [ {
          "name" : "crewId",
          "in" : "path",
          "required" : true,
          "type" : "integer",
          "minimum" : 1,
          "format" : "int64"
        }, {
          "name" : "id",
          "in" : "path",
          "required" : true,
          "type" : "integer",
          "minimum" : 1,
          "format" : "int64"
        } ],
        "responses" : {
          "200" : {
            "description" : "OK",
            "schema" : {
              "$ref" : "#/definitions/Pilot"
            }
          },
          "400" : {
            "description" : "Ошибка валидации входных данных"
          },
          "404" : {
            "description" : "Ресурс не найден"
          },
          "409" : {
            "description" : "Этот ресурс используется в других объектах"
          }
        }
      },
      "delete" : {
        "tags" : [ "crew" ],
        "summary" : "Исключить пилота из экипажа",
        "parameters" : [ {
          "name" : "crewId",
          "in" : "path",
          "required" : true,
          "type" : "integer",
          "minimum" : 1,
          "format" : "int64"
        }, {
          "name" : "id",
          "in" : "path",
          "required" : true,
          "type" : "integer",
          "minimum" : 1,
          "format" : "int64"
        } ],
        "responses" : {
          "204" : {
            "description" : "Ресурс удален"
          },
          "400" : {
            "description" : "Ошибка валидации входных данных"
          },
          "404" : {
            "description" : "Ресурс не найден"
          }
        }
      }
    },
    "/crews/{crewId}/stewardess" : {
      "get" : {
        "tags" : [ "crew" ],
        "summary" : "Получить список стюардесс экипажа",
        "parameters" : [ {
          "name" : "crewId",
          "in" : "path",
          "required" : true,
          "type" : "integer",
          "minimum" : 1,
          "format" : "int64"
        } ],
        "responses" : {
          "200" : {
            "description" : "OK",
            "schema" : {
              "type" : "array",
              "items" : {
                "$ref" : "#/definitions/Stewardess"
              }
            }
          }
        }
      }
    },
    "/crews/{crewId}/stewardess/{id}" : {
      "post" : {
        "tags" : [ "crew" ],
        "summary" : "Добавить стюардессу в экипаж",
        "parameters" : [ {
          "name" : "crewId",
          "in" : "path",
          "required" : true,
          "type" : "integer",
          "minimum" : 1,
          "format" : "int64"
        }, {
          "name" : "id",
          "in" : "path",
          "required" : true,
          "type" : "integer",
          "minimum" : 1,
          "format" : "int64"
        } ],
        "responses" : {
          "201" : {
            "description" : "Ресурс создан",
            "headers" : {
              "Location" : {
                "type" : "string",
                "description" : "Url созданного ресурса"
              }
            }
          },
          "400" : {
            "description" : "Ошибка валидации входных данных"
          },
          "404" : {
            "description" : "Ресурс не найден"
          },
          "409" : {
            "description" : "Этот ресурс используется в других объектах"
          }
        }
      },
      "delete" : {
        "tags" : [ "crew" ],
        "summary" : "Исключить стюардессу из экипажа",
        "parameters" : [ {
          "name" : "crewId",
          "in" : "path",
          "required" : true,
          "type" : "integer",
          "minimum" : 1,
          "format" : "int64"
        }, {
          "name" : "id",
          "in" : "path",
          "required" : true,
          "type" : "integer",
          "minimum" : 1,
          "format" : "int64"
        } ],
        "responses" : {
          "204" : {
            "description" : "Ресурс удален"
          },
          "400" : {
            "description" : "Ошибка валидации входных данных"
          },
          "404" : {
            "description" : "Ресурс не найден"
          }
        }
      }
    },
    "/flights" : {
      "get" : {
        "tags" : [ "flights" ],
        "summary" : "Получить список рейсов",
        "parameters" : [ ],
        "responses" : {
          "200" : {
            "description" : "OK",
            "schema" : {
              "type" : "array",
              "items" : {
                "$ref" : "#/definitions/Flight"
              }
            }
          }
        }
      },
      "post" : {
        "tags" : [ "flights" ],
        "summary" : "Создать рейс",
        "description" : "Поскольку у нас нет никакой возможности создавать билеты,  то передается дополнительный массив объектов {.count, .price}, из  которого будут сформированы доступные билеты рейса.\n",
        "parameters" : [ {
          "in" : "body",
          "name" : "flightSched",
          "required" : true,
          "schema" : {
            "$ref" : "#/definitions/flightSched"
          }
        } ],
        "responses" : {
          "201" : {
            "description" : "OK",
            "schema" : {
              "$ref" : "#/definitions/Flight"
            }
          },
          "400" : {
            "description" : "Ошибка валидации входных данных"
          },
          "405" : {
            "description" : "Самолету пора на техобслуживание"
          }
        }
      }
    },
    "/flights/{id}" : {
      "get" : {
        "tags" : [ "flights" ],
        "summary" : "Получить информацию о рейсе",
        "parameters" : [ {
          "name" : "id",
          "in" : "path",
          "required" : true,
          "type" : "integer",
          "minimum" : 1,
          "format" : "int64"
        } ],
        "responses" : {
          "200" : {
            "description" : "OK",
            "schema" : {
              "$ref" : "#/definitions/Flight"
            }
          },
          "400" : {
            "description" : "Ошибка валидации входных данных"
          },
          "404" : {
            "description" : "Ресурс не найден"
          }
        }
      },
      "put" : {
        "tags" : [ "flights" ],
        "summary" : "Изменить информацию о рейсе",
        "parameters" : [ {
          "name" : "id",
          "in" : "path",
          "required" : true,
          "type" : "integer",
          "minimum" : 1,
          "format" : "int64"
        }, {
          "in" : "body",
          "name" : "body",
          "required" : true,
          "schema" : {
            "$ref" : "#/definitions/Flight"
          }
        } ],
        "responses" : {
          "200" : {
            "description" : "OK",
            "schema" : {
              "$ref" : "#/definitions/Flight"
            }
          },
          "400" : {
            "description" : "Ошибка валидации входных данных"
          },
          "404" : {
            "description" : "Ресурс не найден"
          }
        }
      },
      "delete" : {
        "tags" : [ "flights" ],
        "summary" : "Отменить рейс",
        "parameters" : [ {
          "name" : "id",
          "in" : "path",
          "required" : true,
          "type" : "integer",
          "minimum" : 1,
          "format" : "int64"
        } ],
        "responses" : {
          "204" : {
            "description" : "Ресурс удален"
          },
          "400" : {
            "description" : "Ошибка валидации входных данных"
          },
          "404" : {
            "description" : "Ресурс не найден"
          },
          "409" : {
            "description" : "Этот ресурс используется в других объектах"
          }
        }
      }
    },
    "/flights/{id}/tickets" : {
      "post" : {
        "tags" : [ "tickets" ],
        "summary" : "Купить билет",
        "parameters" : [ {
          "name" : "id",
          "in" : "path",
          "required" : true,
          "type" : "integer",
          "minimum" : 1,
          "format" : "int64"
        }, {
          "in" : "body",
          "name" : "ticketType",
          "required" : true,
          "schema" : {
            "$ref" : "#/definitions/TicketPref"
          }
        } ],
        "responses" : {
          "200" : {
            "description" : "OK",
            "schema" : {
              "$ref" : "#/definitions/Ticket"
            }
          },
          "400" : {
            "description" : "Ошибка валидации входных данных"
          },
          "404" : {
            "description" : "Ресурс не найден"
          },
          "410" : {
            "description" : "Билетов больше нет"
          }
        }
      },
      "delete" : {
        "tags" : [ "tickets" ],
        "summary" : "Вернуть билет",
        "parameters" : [ {
          "name" : "id",
          "in" : "path",
          "required" : true,
          "type" : "integer",
          "minimum" : 1,
          "format" : "int64"
        }, {
          "in" : "body",
          "name" : "ticket",
          "required" : true,
          "schema" : {
            "$ref" : "#/definitions/Ticket"
          }
        } ],
        "responses" : {
          "204" : {
            "description" : "Ресурс удален"
          },
          "400" : {
            "description" : "Ошибка валидации входных данных"
          },
          "404" : {
            "description" : "Ресурс не найден"
          }
        }
      }
    },
    "/departures" : {
      "get" : {
        "tags" : [ "departures" ],
        "summary" : "Получить список вылетов",
        "parameters" : [ ],
        "responses" : {
          "200" : {
            "description" : "OK",
            "schema" : {
              "type" : "array",
              "items" : {
                "$ref" : "#/definitions/Departure"
              }
            }
          }
        }
      },
      "post" : {
        "tags" : [ "departures" ],
        "summary" : "Запланировать вылет",
        "parameters" : [ ],
        "responses" : {
          "201" : {
            "description" : "OK",
            "schema" : {
              "$ref" : "#/definitions/Departure"
            }
          },
          "400" : {
            "description" : "Ошибка валидации входных данных"
          },
          "405" : {
            "description" : "Самолету пора на техобслуживание"
          },
          "409" : {
            "description" : "Этот ресурс используется в других объектах"
          }
        }
      }
    },
    "/departures/{id}" : {
      "get" : {
        "tags" : [ "departures" ],
        "summary" : "Получить информацию о вылете",
        "parameters" : [ {
          "name" : "id",
          "in" : "path",
          "required" : true,
          "type" : "integer",
          "minimum" : 1,
          "format" : "int64"
        } ],
        "responses" : {
          "200" : {
            "description" : "OK",
            "schema" : {
              "$ref" : "#/definitions/Departure"
            }
          },
          "400" : {
            "description" : "Ошибка валидации входных данных"
          },
          "404" : {
            "description" : "Ресурс не найден"
          }
        }
      },
      "post" : {
        "tags" : [ "departures" ],
        "summary" : "Совершить вылет",
        "parameters" : [ {
          "name" : "id",
          "in" : "path",
          "required" : true,
          "type" : "integer",
          "minimum" : 1,
          "format" : "int64"
        }, {
          "in" : "body",
          "name" : "body",
          "required" : true,
          "schema" : {
            "$ref" : "#/definitions/Departure"
          }
        } ],
        "responses" : {
          "200" : {
            "description" : "OK",
            "schema" : {
              "$ref" : "#/definitions/Departure"
            }
          },
          "400" : {
            "description" : "Ошибка валидации входных данных"
          },
          "404" : {
            "description" : "Ресурс не найден"
          },
          "405" : {
            "description" : "Самолету пора на техобслуживание"
          },
          "409" : {
            "description" : "Этот ресурс используется в других объектах"
          }
        }
      },
      "put" : {
        "tags" : [ "departures" ],
        "summary" : "Изменить информацию о вылете",
        "parameters" : [ {
          "name" : "id",
          "in" : "path",
          "required" : true,
          "type" : "integer",
          "minimum" : 1,
          "format" : "int64"
        }, {
          "in" : "body",
          "name" : "body",
          "required" : true,
          "schema" : {
            "$ref" : "#/definitions/Departure"
          }
        } ],
        "responses" : {
          "200" : {
            "description" : "OK",
            "schema" : {
              "$ref" : "#/definitions/Departure"
            }
          },
          "400" : {
            "description" : "Ошибка валидации входных данных"
          },
          "404" : {
            "description" : "Ресурс не найден"
          }
        }
      },
      "delete" : {
        "tags" : [ "departures" ],
        "summary" : "Отменить вылет",
        "parameters" : [ {
          "name" : "id",
          "in" : "path",
          "required" : true,
          "type" : "integer",
          "minimum" : 1,
          "format" : "int64"
        } ],
        "responses" : {
          "204" : {
            "description" : "Ресурс удален"
          },
          "400" : {
            "description" : "Ошибка валидации входных данных"
          },
          "404" : {
            "description" : "Ресурс не найден"
          },
          "409" : {
            "description" : "Этот ресурс используется в других объектах"
          }
        }
      }
    }
  },
  "definitions" : {
    "Ticket" : {
      "type" : "object",
      "required" : [ "flightId", "price" ],
      "properties" : {
        "id" : {
          "type" : "integer",
          "format" : "int64",
          "minimum" : 1
        },
        "price" : {
          "type" : "number"
        },
        "flightId" : {
          "type" : "string"
        }
      },
      "description" : "Билет",
      "example" : {
        "price" : 6.02745618307040320615897144307382404804229736328125,
        "flightId" : "flightId",
        "id" : 1
      }
    },
    "TicketPref" : {
      "type" : "object",
      "required" : [ "kind" ],
      "properties" : {
        "kind" : {
          "type" : "string",
          "enum" : [ "minPrice", "maxPrice", "any" ]
        }
      },
      "description" : "Предпочтительный тип билета",
      "example" : {
        "kind" : "minPrice"
      }
    },
    "PlaneType" : {
      "type" : "object",
      "required" : [ "capacity", "model", "seats" ],
      "properties" : {
        "id" : {
          "type" : "integer",
          "format" : "int64",
          "minimum" : 1
        },
        "model" : {
          "type" : "string"
        },
        "seats" : {
          "type" : "integer"
        },
        "capacity" : {
          "type" : "number"
        }
      },
      "description" : "Тип самолета",
      "example" : {
        "model" : "model",
        "id" : 1,
        "seats" : 6,
        "capacity" : 1.46581298050294517310021547018550336360931396484375
      }
    },
    "Plane" : {
      "type" : "object",
      "required" : [ "createdDate", "lifetime", "name", "planeTypeId" ],
      "properties" : {
        "id" : {
          "type" : "integer",
          "format" : "int64",
          "minimum" : 1
        },
        "planeTypeId" : {
          "type" : "integer",
          "format" : "int64",
          "minimum" : 1
        },
        "name" : {
          "type" : "string"
        },
        "createdDate" : {
          "type" : "string",
          "format" : "date"
        },
        "lifetime" : {
          "type" : "integer",
          "format" : "int64",
          "minimum" : 0
        }
      },
      "description" : "Самолет",
      "example" : {
        "planeTypeId" : 1,
        "createdDate" : "2000-01-23",
        "name" : "name",
        "lifetime" : 0,
        "id" : 1
      }
    },
    "Pilot" : {
      "type" : "object",
      "required" : [ "birthDate", "experience", "firstName", "lastName" ],
      "properties" : {
        "id" : {
          "type" : "integer",
          "format" : "int64",
          "minimum" : 1
        },
        "firstName" : {
          "type" : "string"
        },
        "lastName" : {
          "type" : "string"
        },
        "birthDate" : {
          "type" : "string",
          "format" : "date"
        },
        "experience" : {
          "type" : "string"
        }
      },
      "description" : "Пилот",
      "example" : {
        "firstName" : "firstName",
        "lastName" : "lastName",
        "id" : 1,
        "experience" : "experience",
        "birthDate" : "2000-01-23"
      }
    },
    "Stewardess" : {
      "type" : "object",
      "required" : [ "birthDate", "firstName", "lastName" ],
      "properties" : {
        "id" : {
          "type" : "integer",
          "format" : "int64",
          "minimum" : 1
        },
        "firstName" : {
          "type" : "string"
        },
        "lastName" : {
          "type" : "string"
        },
        "birthDate" : {
          "type" : "string",
          "format" : "date"
        }
      },
      "description" : "Стюардесса",
      "example" : {
        "firstName" : "firstName",
        "lastName" : "lastName",
        "id" : 1,
        "birthDate" : "2000-01-23"
      }
    },
    "Crew" : {
      "properties" : {
        "id" : {
          "type" : "integer",
          "format" : "int64",
          "minimum" : 1
        },
        "pilotId" : {
          "type" : "integer",
          "format" : "int64",
          "minimum" : 1
        },
        "stewardesses" : {
          "type" : "array",
          "items" : {
            "type" : "integer",
            "format" : "int64",
            "minimum" : 1
          }
        }
      },
      "description" : "Экипаж",
      "example" : {
        "stewardesses" : [ 1, 1 ],
        "id" : 1,
        "pilotId" : 1
      }
    },
    "Flight" : {
      "required" : [ "arrivalDate", "departureDate", "destination", "source" ],
      "properties" : {
        "id" : {
          "type" : "string"
        },
        "source" : {
          "type" : "string"
        },
        "departureDate" : {
          "type" : "string",
          "format" : "date-time"
        },
        "destination" : {
          "type" : "string"
        },
        "arrivalDate" : {
          "type" : "string",
          "format" : "date-time"
        },
        "tickets" : {
          "type" : "array",
          "items" : {
            "type" : "integer",
            "format" : "int64",
            "minimum" : 1
          }
        }
      },
      "description" : "Рейс",
      "example" : {
        "tickets" : [ 1, 1 ],
        "destination" : "destination",
        "id" : "id",
        "source" : "source",
        "departureDate" : "2000-01-23T04:56:07.000+00:00",
        "arrivalDate" : "2000-01-23T04:56:07.000+00:00"
      }
    },
    "Departure" : {
      "required" : [ "crewId", "flightId", "planeId" ],
      "properties" : {
        "id" : {
          "type" : "integer",
          "format" : "int64",
          "minimum" : 1
        },
        "flightId" : {
          "type" : "integer",
          "format" : "int64",
          "minimum" : 1
        },
        "departureDate" : {
          "type" : "string",
          "format" : "date-time"
        },
        "crewId" : {
          "type" : "integer",
          "format" : "int64",
          "minimum" : 1
        },
        "planeId" : {
          "type" : "integer",
          "format" : "int64",
          "minimum" : 1
        }
      },
      "description" : "Вылет",
      "example" : {
        "planeId" : 1,
        "flightId" : 1,
        "crewId" : 1,
        "id" : 1,
        "departureDate" : "2000-01-23T04:56:07.000+00:00"
      }
    },
    "flights_ticketParams" : {
      "required" : [ "count", "price" ],
      "properties" : {
        "count" : {
          "type" : "integer",
          "minimum" : 1
        },
        "price" : {
          "type" : "number",
          "format" : "decimal",
          "multipleOf" : 0.01
        }
      }
    },
    "flightSched" : {
      "type" : "object",
      "required" : [ "ticketParams" ],
      "properties" : {
        "flight" : {
          "$ref" : "#/definitions/Flight"
        },
        "ticketParams" : {
          "type" : "array",
          "items" : {
            "$ref" : "#/definitions/flights_ticketParams"
          }
        }
      }
    }
  },
  "parameters" : {
    "id" : {
      "name" : "id",
      "in" : "path",
      "required" : true,
      "type" : "integer",
      "minimum" : 1,
      "format" : "int64"
    }
  },
  "responses" : {
    "201" : {
      "description" : "Ресурс создан",
      "headers" : {
        "Location" : {
          "type" : "string",
          "description" : "Url созданного ресурса"
        }
      }
    },
    "204" : {
      "description" : "Ресурс удален"
    },
    "400" : {
      "description" : "Ошибка валидации входных данных"
    },
    "404" : {
      "description" : "Ресурс не найден"
    },
    "405" : {
      "description" : "Самолету пора на техобслуживание"
    },
    "409" : {
      "description" : "Этот ресурс используется в других объектах"
    }
  }
}
